{
"version":"v2.0",
"date":"2021-01-29,2021-02-03,2021-02-05,2021-02-17",
"s3_bucket":"iconnectuserbucket",
"baseurl":"https://sso-iconnect--qa.my.salesforce.com",
"user_id":"s116634@merckgroup.com.iconnect.qa",
"password":"aUNvbm5lY3QxMCE=",
"client_id":"3MVG9KlmwBKoC7U1erAWfR52sZnOQjEbS_0u7YzKHZtNPi1YaBDN6i8bAP8CG6kJ8.P8ffY1n6qQPjoqFwGIh",
"client_secret":"91FA768A1BDD0307F43463EC7B149908FEA12BAE107A77629F9C094EA813AA8B",
"grant_type":"password",
"url_for_token":"services/oauth2/token",
"url_for_metadata":"services/data/v48.0/sobjects/{objectname}/describe",
"url_for_data":"services/data/v48.0/query/?q=",
"lazywriter_threshold" : "100",
"s3_data_current" : "s3://{s3_bucket}/data/{objectname}/current/data/",
"s3_data_timestamp": "s3://{s3_bucket}/data/{objectname}/{timestamp}/",
"object_attributes" : "{'Account': ' id, mck_Primary_Country__c, territory_vod__c', 'Address_vod__c':'BRICK_VOD__C,Country_vod__c,ID,ACCOUNT_VOD__C, INCLUDE_IN_TERRITORY_ASSIGNMENT_VOD__C','Brick_to_Terr_vod__c': 'Name, mck_Brick_to_Terr_Country__c, TERRITORY_VOD__C' }",
"filter_condition_1" : " INCLUDE_IN_TERRITORY_ASSIGNMENT_VOD__C = TRUE ",
"filter_condition_2" : " INCLUDE_IN_TERRITORY_ASSIGNMENT_VOD__C = FALSE ",
"write_file_format" : "parquet",
"object_flags" : 
        {
            "Account":
            {   
                "columns" : "id, mck_Primary_Country__c, territory_vod__c",
				"no_of_partitions" : "30",
                "active_flag":"Yes",
                "history_required":"Yes",
				"filter_key" : " "
            } ,
            "Address_vod__c":
            {       
                "columns" : "BRICK_VOD__C,Country_vod__c,ID,ACCOUNT_VOD__C, INCLUDE_IN_TERRITORY_ASSIGNMENT_VOD__C",
				"no_of_partitions" : "30",
                "active_flag":"Yes",
                "history_required":"Yes",
				"filter_key" : "filter_condition_1, filter_condition_2"
             },
            "Brick_to_Terr_vod__c":
            {
                "columns" : "Name, mck_Brick_to_Terr_Country__c, TERRITORY_VOD__C",
				"no_of_partitions" : "1",
                "active_flag":"Yes",
                "history_required":"Yes",
				"filter_key" : " "
            }
        },
"database":"iconnect",
"run_query":"SELECT address.account_vod__c AS Id, brick_to_terr.territory_vod__c AS Territory_vod__c,address.country_vod__c as mck_Primary_Country__c FROM address JOIN brick_to_terr ON address.brick_vod__c = brick_to_terr.name AND address.country_vod__c = brick_to_terr.mck_Brick_to_Terr_Country__c WHERE address.include_in_territory_assignment_vod__c = 'true'",
"result_name":"Account_Terr_Update",
"s3_result_current":"s3://{s3_bucket}/data/{result_name}/{load_type}/current/data/",
"s3_result_timestamp":"s3://{s3_bucket}/data/{result_name}/{load_type}/{timestamp}/",
"result_file_format":"csv",
"default_no_partitions":"10",
"s3_tmp_path":"s3://{s3_bucket}/data/tmp/data/",
"s3_intermediate_path":"s3://{s3_bucket}/data/intermediate/current/data/",
"operation_mode": 
	{
	
		"delta_load_with_current_vs_account" : "Yes", 
		"delta_load_with_current_vs_previous_data" : "No"
	},
"parallel_batch_size":"10000"
}